<?xml version="1.0" encoding="UTF-8"?>
<svg width="46px" height="60px" viewBox="0 0 46 60" version="1.1" xmlns="http://www.w3.org/2000/svg" xmlns:xlink="http://www.w3.org/1999/xlink">
    <!-- Generator: Sketch 51.2 (57519) - http://www.bohemiancoding.com/sketch -->
    <title>cursor-next</title>
    <desc>Created with Sketch.</desc>
    <defs></defs>
    <g id="Page-3" stroke="none" stroke-width="1" fill="none" fill-rule="evenodd">
        <g id="cursor-next" fill-rule="nonzero">
            <polygon id="Shape" fill="#FFFFFF" points="0 1.34683721 0 0.855813953 45.8272326 29.9796977 45.8395349 29.987186 45.8395349 30.3375349 0.0406511628 59.4432326 0 59.4694419 0 58.9784186 45.388093 30.1626279 0.0123023256 1.35486047"></polygon>
            <polygon id="Shape" fill="#000000" points="0 0.491023256 0 0 45.8272326 29.1238837 45.8395349 29.1313721 45.8395349 29.4817209 0.0406511628 58.5874186 0 58.6136279 0 58.1220698 45.388093 29.306814 0.0123023256 0.499046512"></polygon>
        </g>
    </g>
</svg>